%YAML 1.1
%TAG !u! tag:unity3d.com,2011:
--- !u!1 &170630
GameObject:
  m_ObjectHideFlags: 0
  m_PrefabParentObject: {fileID: 0}
  m_PrefabInternal: {fileID: 100100000}
  serializedVersion: 4
  m_Component:
  - 4: {fileID: 494882}
  - 114: {fileID: 11409384}
  m_Layer: 0
  m_Name: WeatherManager
  m_TagString: Untagged
  m_Icon: {fileID: 0}
  m_NavMeshLayer: 0
  m_StaticEditorFlags: 0
  m_IsActive: 1
--- !u!4 &494882
Transform:
  m_ObjectHideFlags: 1
  m_PrefabParentObject: {fileID: 0}
  m_PrefabInternal: {fileID: 100100000}
  m_GameObject: {fileID: 170630}
  m_LocalRotation: {x: 0, y: 0, z: 0, w: 1}
  m_LocalPosition: {x: 0, y: 0, z: 0}
  m_LocalScale: {x: 1, y: 1, z: 1}
  m_LocalEulerAnglesHint: {x: 0, y: 0, z: 0}
  m_Children: []
  m_Father: {fileID: 0}
  m_RootOrder: 0
--- !u!114 &11409384
MonoBehaviour:
  m_ObjectHideFlags: 1
  m_PrefabParentObject: {fileID: 0}
  m_PrefabInternal: {fileID: 100100000}
  m_GameObject: {fileID: 170630}
  m_Enabled: 1
  m_EditorHideFlags: 0
  m_Script: {fileID: 11500000, guid: af1cf956f3de7ae47a046b6f4cc99b0a, type: 3}
  m_Name: 
  m_EditorClassIdentifier: 
  worldsWeather:
  - debugName: Miami
    worldType: 0
    weathers:
    - chance: 0.8
      type: 0
    - chance: 0.2
      type: 1
  - debugName: China
    worldType: 1
    weathers:
    - chance: 0.8
      type: 0
    - chance: 0.2
      type: 1
  - debugName: Ice City
    worldType: 2
    weathers:
    - chance: 1
      type: 2
  - debugName: ChristmasCity
    worldType: 10
    weathers:
    - chance: 1
      type: 2
  - debugName: Las Vegas
    worldType: 3
    weathers:
    - chance: 0
      type: 0
  - debugName: Sin City
    worldType: 4
    weathers:
    - chance: 1
      type: 1
  - debugName: Post Apo
    worldType: 5
    weathers:
    - chance: 0.3
      type: 0
    - chance: 0.3
      type: 1
    - chance: 0.3
      type: 2
  - debugName: Alien
    worldType: 6
    weathers:
    - chance: 0.5
      type: 0
    - chance: 0.5
      type: 0
  - debugName: Cyber
    worldType: 7
    weathers:
    - chance: 1
      type: 0
  - debugName: Psycho
    worldType: 8
    weathers:
    - chance: 0.3
      type: 0
    - chance: 0.3
      type: 1
    - chance: 0.3
      type: 2
  - debugName: London
    worldType: 9
    weathers:
    - chance: 1
      type: 1
  weatherObjectsHolders:
  - type: 0
    objects: []
  - type: 1
    objects:
    - {fileID: 0}
  - type: 2
    objects:
    - {fileID: 0}
  worldOrder: {fileID: 0}
--- !u!1001 &100100000
Prefab:
  m_ObjectHideFlags: 1
  serializedVersion: 2
  m_Modification:
    m_TransformParent: {fileID: 0}
    m_Modifications: []
    m_RemovedComponents: []
  m_ParentPrefab: {fileID: 0}
  m_RootGameObject: {fileID: 170630}
  m_IsPrefabParent: 1
