%YAML 1.1
%TAG !u! tag:unity3d.com,2011:
--- !u!21 &2100000
Material:
  serializedVersion: 6
  m_ObjectHideFlags: 0
  m_PrefabParentObject: {fileID: 0}
  m_PrefabInternal: {fileID: 0}
  m_Name: Building_WindowFakeLight 1_SinCity
  m_Shader: {fileID: 4800000, guid: 08eed2c565b2571489bc17043616ffcf, type: 3}
  m_ShaderKeywords: 
  m_LightmapFlags: 5
  m_CustomRenderQueue: -1
  stringTagMap: {}
  m_SavedProperties:
    serializedVersion: 2
    m_TexEnvs:
    - first:
        name: _AO
      second:
        m_Texture: {fileID: 2800000, guid: 5d4c228ef0c7ed640b96404df6cf24ed, type: 3}
        m_Scale: {x: 1, y: 1}
        m_Offset: {x: 0, y: 0}
    - first:
        name: _AnimatedTexture
      second:
        m_Texture: {fileID: 2800000, guid: a3ab381dc1af8684992cccb4e206413a, type: 3}
        m_Scale: {x: 1, y: 1}
        m_Offset: {x: 0, y: 0}
    - first:
        name: _BumpMap
      second:
        m_Texture: {fileID: 0}
        m_Scale: {x: 1, y: 1}
        m_Offset: {x: 0, y: 0}
    - first:
        name: _DetailAlbedoMap
      second:
        m_Texture: {fileID: 0}
        m_Scale: {x: 1, y: 1}
        m_Offset: {x: 0, y: 0}
    - first:
        name: _DetailMask
      second:
        m_Texture: {fileID: 0}
        m_Scale: {x: 1, y: 1}
        m_Offset: {x: 0, y: 0}
    - first:
        name: _DetailNormalMap
      second:
        m_Texture: {fileID: 0}
        m_Scale: {x: 1, y: 1}
        m_Offset: {x: 0, y: 0}
    - first:
        name: _EmissionMap
      second:
        m_Texture: {fileID: 0}
        m_Scale: {x: 1, y: 1}
        m_Offset: {x: 0, y: 0}
    - first:
        name: _LogoTexture
      second:
        m_Texture: {fileID: 2800000, guid: 64d9e3b131db69943acb691f0f29ea9b, type: 3}
        m_Scale: {x: 1, y: 1}
        m_Offset: {x: 0, y: 0}
    - first:
        name: _MainTex
      second:
        m_Texture: {fileID: 0}
        m_Scale: {x: 1, y: 1}
        m_Offset: {x: 0, y: 0}
    - first:
        name: _MetallicGlossMap
      second:
        m_Texture: {fileID: 0}
        m_Scale: {x: 1, y: 1}
        m_Offset: {x: 0, y: 0}
    - first:
        name: _OcclusionMap
      second:
        m_Texture: {fileID: 0}
        m_Scale: {x: 1, y: 1}
        m_Offset: {x: 0, y: 0}
    - first:
        name: _ParallaxMap
      second:
        m_Texture: {fileID: 0}
        m_Scale: {x: 1, y: 1}
        m_Offset: {x: 0, y: 0}
    - first:
        name: _SH
      second:
        m_Texture: {fileID: 2800000, guid: be8edcb7a3acddd4e88bad8df5663aa0, type: 3}
        m_Scale: {x: 1, y: 1}
        m_Offset: {x: 0, y: 0}
    - first:
        name: _StoreWindowTexture
      second:
        m_Texture: {fileID: 0}
        m_Scale: {x: 1, y: 1}
        m_Offset: {x: 0, y: 0}
    - first:
        name: _WindowTexture
      second:
        m_Texture: {fileID: 2800000, guid: 94c533f61f7424c4099ec8ddb78f8fdc, type: 3}
        m_Scale: {x: 1, y: 1}
        m_Offset: {x: 0, y: 0}
    m_Floats:
    - first:
        name: _AnimatedStrength
      second: -0.63
    - first:
        name: _Bright
      second: 0
    - first:
        name: _BumpScale
      second: 1
    - first:
        name: _C1
      second: 1
    - first:
        name: _C2
      second: 1
    - first:
        name: _C3
      second: 1
    - first:
        name: _Cutoff
      second: 0.5
    - first:
        name: _DetailNormalMapScale
      second: 1
    - first:
        name: _DstBlend
      second: 0
    - first:
        name: _Glossiness
      second: 0.5
    - first:
        name: _ISSephia
      second: 0
    - first:
        name: _Metallic
      second: 0
    - first:
        name: _Mode
      second: 0
    - first:
        name: _OcclusionStrength
      second: 1
    - first:
        name: _Offset
      second: -30.1
    - first:
        name: _Parallax
      second: 0.02
    - first:
        name: _ScaleX
      second: 1
    - first:
        name: _ScaleY
      second: 1
    - first:
        name: _SephiaFact
      second: 0
    - first:
        name: _SrcBlend
      second: 1
    - first:
        name: _StoreWindowStrength
      second: 1
    - first:
        name: _Strength
      second: 1.7
    - first:
        name: _UVSec
      second: 0
    - first:
        name: _WindowStrength
      second: 1.7
    - first:
        name: _ZWrite
      second: 1
    m_Colors:
    - first:
        name: _BackgroundColor
      second: {r: 0, g: 0, b: 0, a: 1}
    - first:
        name: _Color
      second: {r: 1, g: 0.30588236, b: 0, a: 1}
    - first:
        name: _EmissionColor
      second: {r: 0, g: 0, b: 0, a: 1}
    - first:
        name: _LogoColor
      second: {r: 1, g: 1, b: 1, a: 1}
